\relax 
\providecommand\hyper@newdestlabel[2]{}
\providecommand\BKM@entry[2]{}
\providecommand\HyperFirstAtBeginDocument{\AtBeginDocument}
\HyperFirstAtBeginDocument{\ifx\hyper@anchor\@undefined
\global\let\oldcontentsline\contentsline
\gdef\contentsline#1#2#3#4{\oldcontentsline{#1}{#2}{#3}}
\global\let\oldnewlabel\newlabel
\gdef\newlabel#1#2{\newlabelxx{#1}#2}
\gdef\newlabelxx#1#2#3#4#5#6{\oldnewlabel{#1}{{#2}{#3}}}
\AtEndDocument{\ifx\hyper@anchor\@undefined
\let\contentsline\oldcontentsline
\let\newlabel\oldnewlabel
\fi}
\fi}
\global\let\hyper@last\relax 
\gdef\HyperFirstAtBeginDocument#1{#1}
\providecommand\HyField@AuxAddToFields[1]{}
\providecommand\HyField@AuxAddToCoFields[2]{}
\BKM@entry{id=1,dest={73656374696F6E2A2E31},srcline={126}}{5C3337365C3337375C303030545C303030615C303030735C3030306B5C3030305C3034305C303030375C3030302E5C303030315C3030302E}
\BKM@entry{id=2,dest={73656374696F6E2A2E32},srcline={138}}{5C3337365C3337375C303030375C3030302E5C303030315C3030302E5C303030315C3030302E}
\BKM@entry{id=3,dest={73656374696F6E2A2E33},srcline={153}}{5C3337365C3337375C303030375C3030302E5C303030315C3030302E5C303030325C3030302E}
\@writefile{toc}{\contentsline {section}{Task 7.1.}{1}{section*.1}\protected@file@percent }
\newlabel{task-7.1.}{{}{1}{Task 7.1}{section*.1}{}}
\@writefile{toc}{\contentsline {subsubsection}{7.1.1.}{1}{section*.2}\protected@file@percent }
\newlabel{section}{{}{1}{7.1.1}{section*.2}{}}
\@writefile{toc}{\contentsline {subsubsection}{7.1.2.}{1}{section*.3}\protected@file@percent }
\newlabel{section-1}{{}{1}{7.1.2}{section*.3}{}}
\BKM@entry{id=4,dest={73656374696F6E2A2E34},srcline={243}}{5C3337365C3337375C303030375C3030302E5C303030315C3030302E5C303030335C3030302E}
\@writefile{toc}{\contentsline {subsubsection}{7.1.3.}{3}{section*.4}\protected@file@percent }
\newlabel{section-2}{{}{3}{7.1.3}{section*.4}{}}
\BKM@entry{id=5,dest={73656374696F6E2A2E35},srcline={312}}{5C3337365C3337375C303030375C3030302E5C303030315C3030302E5C303030345C3030302E}
\BKM@entry{id=6,dest={73656374696F6E2A2E36},srcline={338}}{5C3337365C3337375C303030545C303030615C303030735C3030306B5C3030305C3034305C303030375C3030302E5C303030325C3030302E}
\BKM@entry{id=7,dest={73656374696F6E2A2E37},srcline={350}}{5C3337365C3337375C303030375C3030302E5C303030325C3030302E5C303030315C3030302E}
\BKM@entry{id=8,dest={73656374696F6E2A2E38},srcline={383}}{5C3337365C3337375C303030375C3030302E5C303030325C3030302E5C303030325C3030302E}
\@writefile{toc}{\contentsline {subsubsection}{7.1.4.}{4}{section*.5}\protected@file@percent }
\newlabel{section-3}{{}{4}{7.1.4}{section*.5}{}}
\@writefile{toc}{\contentsline {section}{Task 7.2.}{4}{section*.6}\protected@file@percent }
\newlabel{task-7.2.}{{}{4}{Task 7.2}{section*.6}{}}
\@writefile{toc}{\contentsline {subsubsection}{7.2.1.}{4}{section*.7}\protected@file@percent }
\newlabel{section-4}{{}{4}{7.2.1}{section*.7}{}}
\@writefile{toc}{\contentsline {subsubsection}{7.2.2.}{5}{section*.8}\protected@file@percent }
\newlabel{section-5}{{}{5}{7.2.2}{section*.8}{}}
\BKM@entry{id=9,dest={73656374696F6E2A2E39},srcline={517}}{5C3337365C3337375C303030545C303030615C303030735C3030306B5C3030305C3034305C303030375C3030302E5C303030335C3030302E}
\BKM@entry{id=10,dest={73656374696F6E2A2E3130},srcline={530}}{5C3337365C3337375C303030375C3030302E5C303030335C3030302E5C303030315C3030302E}
\@writefile{toc}{\contentsline {section}{Task 7.3.}{7}{section*.9}\protected@file@percent }
\newlabel{task-7.3.}{{}{7}{Task 7.3}{section*.9}{}}
\@writefile{toc}{\contentsline {subsubsection}{7.3.1.}{7}{section*.10}\protected@file@percent }
\newlabel{section-6}{{}{7}{7.3.1}{section*.10}{}}
\BKM@entry{id=11,dest={73656374696F6E2A2E3131},srcline={615}}{5C3337365C3337375C303030375C3030302E5C303030335C3030302E5C303030325C3030302E}
\@writefile{toc}{\contentsline {subsubsection}{7.3.2.}{8}{section*.11}\protected@file@percent }
\newlabel{section-7}{{}{8}{7.3.2}{section*.11}{}}
\BKM@entry{id=12,dest={73656374696F6E2A2E3132},srcline={642}}{5C3337365C3337375C303030375C3030302E5C303030335C3030302E5C303030335C3030302E}
\BKM@entry{id=13,dest={73656374696F6E2A2E3133},srcline={673}}{5C3337365C3337375C303030375C3030302E5C303030335C3030302E5C303030345C3030302E}
\@writefile{toc}{\contentsline {subsubsection}{7.3.3.}{9}{section*.12}\protected@file@percent }
\newlabel{section-8}{{}{9}{7.3.3}{section*.12}{}}
\@writefile{toc}{\contentsline {subsubsection}{7.3.4.}{9}{section*.13}\protected@file@percent }
\newlabel{section-9}{{}{9}{7.3.4}{section*.13}{}}
\BKM@entry{id=14,dest={73656374696F6E2A2E3134},srcline={698}}{5C3337365C3337375C303030375C3030302E5C303030335C3030302E5C303030355C3030302E}
\BKM@entry{id=15,dest={73656374696F6E2A2E3135},srcline={742}}{5C3337365C3337375C303030545C303030615C303030735C3030306B5C3030305C3034305C303030375C3030302E5C303030345C3030302E5C3030305C3034305C303030615C3030306E5C303030645C3030305C3034305C303030375C3030302E5C303030355C3030302E}
\@writefile{toc}{\contentsline {subsubsection}{7.3.5.}{10}{section*.14}\protected@file@percent }
\newlabel{section-10}{{}{10}{7.3.5}{section*.14}{}}
\@writefile{toc}{\contentsline {section}{Task 7.4. and 7.5.}{10}{section*.15}\protected@file@percent }
\newlabel{task-7.4.-and-7.5.}{{}{10}{Task 7.4. and 7.5}{section*.15}{}}
\BKM@entry{id=16,dest={73656374696F6E2A2E3136},srcline={773}}{5C3337365C3337375C303030375C3030302E5C303030345C3030302E5C303030315C3030302E}
\@writefile{toc}{\contentsline {subsubsection}{7.4.1.}{11}{section*.16}\protected@file@percent }
\newlabel{section-11}{{}{11}{7.4.1}{section*.16}{}}
\BKM@entry{id=17,dest={73656374696F6E2A2E3137},srcline={855}}{5C3337365C3337375C303030375C3030302E5C303030345C3030302E5C303030325C3030302E}
\@writefile{toc}{\contentsline {subsubsection}{7.4.2.}{12}{section*.17}\protected@file@percent }
\newlabel{section-12}{{}{12}{7.4.2}{section*.17}{}}
\BKM@entry{id=18,dest={73656374696F6E2A2E3138},srcline={1013}}{5C3337365C3337375C303030375C3030302E5C303030345C3030302E5C303030335C3030302E}
\@writefile{toc}{\contentsline {subsubsection}{7.4.3.}{15}{section*.18}\protected@file@percent }
\newlabel{section-13}{{}{15}{7.4.3}{section*.18}{}}
\BKM@entry{id=19,dest={73656374696F6E2A2E3139},srcline={1209}}{5C3337365C3337375C303030545C303030615C303030735C3030306B5C3030305C3034305C303030375C3030302E5C303030345C3030302E5C303030345C3030302E}
\@writefile{toc}{\contentsline {subsubsection}{Task 7.4.4.}{19}{section*.19}\protected@file@percent }
\newlabel{task-7.4.4.}{{}{19}{Task 7.4.4}{section*.19}{}}
\BKM@entry{id=20,dest={73656374696F6E2A2E3230},srcline={1334}}{5C3337365C3337375C303030545C303030615C303030735C3030306B5C3030305C3034305C303030375C3030302E5C303030375C3030302E5C3030305C3034305C303030615C3030306E5C303030645C3030305C3034305C303030545C303030615C303030735C3030306B5C3030305C3034305C303030375C3030302E5C303030365C3030302E}
\BKM@entry{id=21,dest={73656374696F6E2A2E3231},srcline={1352}}{5C3337365C3337375C303030545C303030615C303030735C3030306B5C3030305C3034305C303030375C3030302E5C303030375C3030302E5C303030315C3030302E5C3030305C3034305C303030615C3030306E5C303030645C3030305C3034305C303030545C303030615C303030735C3030306B5C3030305C3034305C303030375C3030302E5C303030375C3030302E5C303030325C3030302E}
\@writefile{toc}{\contentsline {section}{Task 7.7. and Task 7.6.}{21}{section*.20}\protected@file@percent }
\newlabel{task-7.7.-and-task-7.6.}{{}{21}{Task 7.7. and Task 7.6}{section*.20}{}}
\@writefile{toc}{\contentsline {subsubsection}{Task 7.7.1. and Task 7.7.2.}{21}{section*.21}\protected@file@percent }
\newlabel{task-7.7.1.-and-task-7.7.2.}{{}{21}{Task 7.7.1. and Task 7.7.2}{section*.21}{}}
\BKM@entry{id=22,dest={73656374696F6E2A2E3232},srcline={1455}}{5C3337365C3337375C303030545C303030615C303030735C3030306B5C3030305C3034305C303030375C3030302E5C303030375C3030302E5C303030335C3030302E}
\BKM@entry{id=23,dest={73656374696F6E2A2E3233},srcline={1478}}{5C3337365C3337375C303030545C303030615C303030735C3030306B5C3030305C3034305C303030375C3030302E5C303030375C3030302E5C303030345C3030302E}
\@writefile{toc}{\contentsline {subsubsection}{Task 7.7.3.}{23}{section*.22}\protected@file@percent }
\newlabel{task-7.7.3.}{{}{23}{Task 7.7.3}{section*.22}{}}
\@writefile{toc}{\contentsline {subsubsection}{Task 7.7.4.}{23}{section*.23}\protected@file@percent }
\newlabel{task-7.7.4.}{{}{23}{Task 7.7.4}{section*.23}{}}
\BKM@entry{id=24,dest={73656374696F6E2A2E3234},srcline={1557}}{5C3337365C3337375C303030545C303030615C303030735C3030306B5C3030305C3034305C303030375C3030302E5C303030375C3030302E5C303030355C3030302E}
\BKM@entry{id=25,dest={73656374696F6E2A2E3235},srcline={1584}}{5C3337365C3337375C303030545C303030615C303030735C3030306B5C3030305C3034305C303030375C3030302E5C303030375C3030302E5C303030365C3030302E}
\@writefile{toc}{\contentsline {subsubsection}{Task 7.7.5.}{24}{section*.24}\protected@file@percent }
\newlabel{task-7.7.5.}{{}{24}{Task 7.7.5}{section*.24}{}}
\@writefile{toc}{\contentsline {subsubsection}{Task 7.7.6.}{24}{section*.25}\protected@file@percent }
\newlabel{task-7.7.6.}{{}{24}{Task 7.7.6}{section*.25}{}}
